sim/cycle_counter_tb.vcd
$date
	Fri Apr 10 14:22:27 2026
$end
$version
	Icarus Verilog
$end
$timescale
	1ns
$end
$scope module cycle_counter_tb $end
$var wire 2 ! s_axil_rresp [1:0] $end
$var wire 1 " s_axil_rvalid $end
$var wire 32 # s_axil_rdata [31:0] $end
$var wire 1 $ s_axil_arready $end
$var parameter 32 % CLK_FREQ $end
$var reg 1 & aclk $end
$var reg 1 ' aresetn $end
$var reg 1 ( frame_done $end
$var reg 1 ) pixel_start $end
$var reg 4 * s_axil_araddr [3:0] $end
$var reg 1 + s_axil_arvalid $end
$var reg 1 , s_axil_rready $end
$var integer 32 - fail_count [31:0] $end
$var integer 32 . pass_count [31:0] $end
$scope module dut $end
$var wire 1 & aclk $end
$var wire 1 ' aresetn $end
$var wire 1 ( frame_done $end
$var wire 1 ) pixel_start $end
$var wire 4 / s_axil_araddr [3:0] $end
$var wire 1 $ s_axil_arready $end
$var wire 1 + s_axil_arvalid $end
$var wire 1 , s_axil_rready $end
$var wire 2 0 s_axil_rresp [1:0] $end
$var parameter 32 1 CLK_FREQ $end
$var reg 32 2 count [31:0] $end
$var reg 2 3 currState [1:0] $end
$var reg 32 4 latchedCount [31:0] $end
$var reg 2 5 nextState [1:0] $end
$var reg 1 6 result_valid $end
$var reg 32 7 s_axil_rdata [31:0] $end
$var reg 1 " s_axil_rvalid $end
$upscope $end
$scope begin $unm_blk_14 $end
$var reg 32 8 r [31:0] $end
$upscope $end
$scope begin $unm_blk_15 $end
$var reg 32 9 r [31:0] $end
$upscope $end
$scope begin $unm_blk_16 $end
$var reg 32 : r [31:0] $end
$upscope $end
$scope begin $unm_blk_17 $end
$var reg 32 ; r [31:0] $end
$upscope $end
$scope begin $unm_blk_18 $end
$var reg 32 < r [31:0] $end
$upscope $end
$scope begin $unm_blk_19 $end
$var reg 32 = dummy [31:0] $end
$upscope $end
$scope begin $unm_blk_6 $end
$var reg 32 > r [31:0] $end
$upscope $end
$scope begin $unm_blk_7 $end
$var reg 32 ? r [31:0] $end
$upscope $end
$scope task apply_reset $end
$upscope $end
$scope task axil_read $end
$upscope $end
$scope task check $end
$upscope $end
$scope task run_measurement $end
$upscope $end
$upscope $end
$enddefinitions $end
$comment Show the parameter values. $end
$dumpall
b101111101011110000100000000 1
b101111101011110000100000000 %
$end
#0
$dumpvars
bx ?
bx >
bx =
bx <
bx ;
bx :
bx 9
bx 8
bx 7
x6
b0 5
bx 4
bx 3
bx 2
b0 0
b0 /
b0 .
b0 -
0,
0+
b0 *
0)
0(
0'
0&
0$
bx #
x"
b0 !
$end
#5
b0 3
b0 2
b0 4
06
0"
b0 #
b0 7
1&
#10
0&
#15
1&
#20
0&
#25
1&
#30
0&
#35
1&
#36
1'
#40
0&
#45
1&
#46
b1 5
1)
#50
0&
#55
b1 3
1&
#56
0)
#60
0&
#65
b1 2
1&
#70
0&
#75
b10 2
1&
#80
0&
#85
b11 2
1&
#90
0&
#95
b100 2
1&
#100
0&
#105
b101 2
1&
#110
0&
#115
b110 2
1&
#120
0&
#125
b111 2
1&
#130
0&
#135
b1000 2
1&
#140
0&
#145
b1001 2
1&
#146
b10 5
1(
#150
0&
#155
16
b1010 4
b1010 2
b10 3
1&
#156
0(
#160
0&
#165
1&
#166
1$
1+
#170
0&
#175
b1010 #
b1010 7
1"
1&
#176
1,
0$
0+
#180
0&
#185
b0 5
06
0"
1&
#186
0,
#190
0&
#195
b0 3
1&
#196
0'
b1 .
b1010 >
#200
0&
#205
b0 2
b0 4
b0 #
b0 7
1&
#210
0&
#215
1&
#220
0&
#225
1&
#230
0&
#235
1&
#236
1'
#240
0&
#245
1&
#246
b1 5
1)
#250
0&
#255
b1 3
1&
#256
0)
#260
0&
#265
b1 2
1&
#270
0&
#275
b10 2
1&
#280
0&
#285
b11 2
1&
#290
0&
#295
b100 2
1&
#300
0&
#305
b101 2
1&
#310
0&
#315
b110 2
1&
#320
0&
#325
b111 2
1&
#330
0&
#335
b1000 2
1&
#340
0&
#345
b1001 2
1&
#350
0&
#355
b1010 2
1&
#360
0&
#365
b1011 2
1&
#370
0&
#375
b1100 2
1&
#380
0&
#385
b1101 2
1&
#390
0&
#395
b1110 2
1&
#400
0&
#405
b1111 2
1&
#410
0&
#415
b10000 2
1&
#420
0&
#425
b10001 2
1&
#430
0&
#435
b10010 2
1&
#440
0&
#445
b10011 2
1&
#450
0&
#455
b10100 2
1&
#460
0&
#465
b10101 2
1&
#470
0&
#475
b10110 2
1&
#480
0&
#485
b10111 2
1&
#490
0&
#495
b11000 2
1&
#500
0&
#505
b11001 2
1&
#510
0&
#515
b11010 2
1&
#520
0&
#525
b11011 2
1&
#530
0&
#535
b11100 2
1&
#540
0&
#545
b11101 2
1&
#550
0&
#555
b11110 2
1&
#560
0&
#565
b11111 2
1&
#570
0&
#575
b100000 2
1&
#580
0&
#585
b100001 2
1&
#590
0&
#595
b100010 2
1&
#600
0&
#605
b100011 2
1&
#610
0&
#615
b100100 2
1&
#620
0&
#625
b100101 2
1&
#630
0&
#635
b100110 2
1&
#640
0&
#645
b100111 2
1&
#650
0&
#655
b101000 2
1&
#660
0&
#665
b101001 2
1&
#670
0&
#675
b101010 2
1&
#680
0&
#685
b101011 2
1&
#690
0&
#695
b101100 2
1&
#700
0&
#705
b101101 2
1&
#710
0&
#715
b101110 2
1&
#720
0&
#725
b101111 2
1&
#730
0&
#735
b110000 2
1&
#740
0&
#745
b110001 2
1&
#746
b10 5
1(
#750
0&
#755
16
b110010 4
b110010 2
b10 3
1&
#756
0(
#760
0&
#765
1&
#766
1$
1+
#770
0&
#775
b110010 #
b110010 7
1"
1&
#776
1,
0$
0+
#780
0&
#785
b0 5
06
0"
1&
#786
0,
#790
0&
#795
b0 3
1&
#796
0'
b10 .
b110010 ?
#800
0&
#805
b0 2
b0 4
b0 #
b0 7
1&
#810
0&
#815
1&
#820
0&
#825
1&
#830
0&
#835
1&
#836
1'
#840
0&
#845
1&
#846
1$
1+
#847
b11 .
#850
0&
#855
1"
1&
#856
0$
0+
#860
0&
#865
1&
#866
0'
#870
0&
#875
0"
1&
#880
0&
#885
1&
#890
0&
#895
1&
#900
0&
#905
1&
#906
1'
#910
0&
#915
1&
#917
0'
b100 .
#920
0&
#925
1&
#930
0&
#935
1&
#940
0&
#945
1&
#950
0&
#955
1&
#956
1'
#960
0&
#965
1&
#966
b1 5
1)
#970
0&
#975
b1 3
1&
#976
0)
#980
0&
#985
b1 2
1&
#990
0&
#995
b10 2
1&
#1000
0&
#1005
b11 2
1&
#1010
0&
#1015
b100 2
1&
#1020
0&
#1025
b101 2
1&
#1030
0&
#1035
b110 2
1&
#1040
0&
#1045
b111 2
1&
#1050
0&
#1055
b1000 2
1&
#1060
0&
#1065
b1001 2
1&
#1070
0&
#1075
b1010 2
1&
#1080
0&
#1085
b1011 2
1&
#1090
0&
#1095
b1100 2
1&
#1100
0&
#1105
b1101 2
1&
#1110
0&
#1115
b1110 2
1&
#1120
0&
#1125
b1111 2
1&
#1130
0&
#1135
b10000 2
1&
#1140
0&
#1145
b10001 2
1&
#1150
0&
#1155
b10010 2
1&
#1160
0&
#1165
b10011 2
1&
#1166
b10 5
1(
#1170
0&
#1175
16
b10100 4
b10100 2
b10 3
1&
#1176
0(
#1180
0&
#1185
1&
#1186
1)
#1190
0&
#1195
1&
#1196
1$
1+
0)
#1200
0&
#1205
1"
b10100 #
b10100 7
1&
#1206
1,
0$
0+
#1210
0&
#1215
b0 5
0"
06
1&
#1216
0,
#1220
0&
#1225
b0 3
1&
#1226
0'
b101 .
b10100 8
#1230
0&
#1235
b0 #
b0 7
b0 4
b0 2
1&
#1240
0&
#1245
1&
#1250
0&
#1255
1&
#1260
0&
#1265
1&
#1266
1'
#1270
0&
#1275
1&
#1276
b1 5
1)
#1280
0&
#1285
b1 3
1&
#1286
0)
#1290
0&
#1295
b1 2
1&
#1300
0&
#1305
b10 2
1&
#1310
0&
#1315
b11 2
1&
#1320
0&
#1325
b100 2
1&
#1326
b10 5
1(
#1330
0&
#1335
16
b101 4
b101 2
b10 3
1&
#1336
0(
#1340
0&
#1345
1&
#1346
1$
1+
#1350
0&
#1355
b101 #
b101 7
1"
1&
#1356
1,
0$
0+
#1360
0&
#1365
b0 5
06
0"
1&
#1366
0,
#1370
0&
#1375
b0 3
1&
#1376
b1 5
1)
b110 .
b101 9
#1380
0&
#1385
b1 3
b0 2
1&
#1386
0)
#1390
0&
#1395
b1 2
1&
#1400
0&
#1405
b10 2
1&
#1410
0&
#1415
b11 2
1&
#1420
0&
#1425
b100 2
1&
#1430
0&
#1435
b101 2
1&
#1440
0&
#1445
b110 2
1&
#1450
0&
#1455
b111 2
1&
#1456
b10 5
1(
#1460
0&
#1465
b10 3
b1000 2
b1000 4
16
1&
#1466
0(
#1470
0&
#1475
1&
#1476
1$
1+
#1480
0&
#1485
1"
b1000 #
b1000 7
1&
#1486
1,
0$
0+
#1490
0&
#1495
b0 5
0"
06
1&
#1496
0,
#1500
0&
#1505
b0 3
1&
#1506
0'
b111 .
b1000 9
#1510
0&
#1515
b0 #
b0 7
b0 4
b0 2
1&
#1520
0&
#1525
1&
#1530
0&
#1535
1&
#1540
0&
#1545
1&
#1546
1'
#1550
0&
#1555
1&
#1556
1$
1+
b100 *
b100 /
#1560
0&
#1565
1"
b101111101011110000100000000 #
b101111101011110000100000000 7
1&
#1566
1,
0$
0+
#1570
0&
#1575
0"
1&
#1576
0,
#1580
0&
#1585
1&
#1586
b0 *
b0 /
0'
b1000 .
b101111101011110000100000000 :
#1590
0&
#1595
b0 #
b0 7
1&
#1600
0&
#1605
1&
#1610
0&
#1615
1&
#1620
0&
#1625
1&
#1626
1'
#1630
0&
#1635
1&
#1636
1$
1+
b1100 *
b1100 /
#1640
0&
#1645
1"
b11011110101011011011111011101111 #
b11011110101011011011111011101111 7
1&
#1646
1,
0$
0+
#1650
0&
#1655
0"
1&
#1656
0,
#1660
0&
#1665
1&
#1666
b0 *
b0 /
0'
b1001 .
b11011110101011011011111011101111 ;
#1670
0&
#1675
b0 #
b0 7
1&
#1680
0&
#1685
1&
#1690
0&
#1695
1&
#1700
0&
#1705
1&
#1706
1'
#1710
0&
#1715
1&
#1716
b1 5
1)
#1720
0&
#1725
b1 3
1&
#1726
0)
#1730
0&
#1735
b1 2
1&
#1740
0&
#1745
b10 2
1&
#1750
0&
#1755
b11 2
1&
#1760
0&
#1765
b100 2
1&
#1770
0&
#1775
b101 2
1&
#1776
0'
#1780
0&
#1785
b0 5
b0 3
b0 2
1&
#1790
0&
#1795
1&
#1796
1'
#1800
0&
#1805
1&
#1806
b1 5
1)
#1810
0&
#1815
b1 3
1&
#1816
0)
#1820
0&
#1825
b1 2
1&
#1830
0&
#1835
b10 2
1&
#1836
b10 5
1(
#1840
0&
#1845
b10 3
b11 2
b11 4
16
1&
#1846
0(
#1850
0&
#1855
1&
#1856
1$
1+
#1860
0&
#1865
1"
b11 #
b11 7
1&
#1866
1,
0$
0+
#1870
0&
#1875
b0 5
0"
06
1&
#1876
0,
#1880
0&
#1885
b0 3
1&
#1886
0'
b1010 .
b11 <
#1890
0&
#1895
b0 #
b0 7
b0 4
b0 2
1&
#1900
0&
#1905
1&
#1910
0&
#1915
1&
#1920
0&
#1925
1&
#1926
1'
#1930
0&
#1935
1&
#1936
1$
1+
#1940
0&
#1945
1"
1&
#1946
1,
0$
0+
#1950
0&
#1955
0"
1&
#1956
0,
#1960
0&
#1965
1&
#1966
b1011 .
b0 =
